{
  "base_url": "/user/clement_jt-mt15-2021-hchi4kd2/",
  "hostname": "0.0.0.0",
  "notebook_dir": "/home/jovyan",
  "password": false,
  "pid": 24,
  "port": 8888,
  "secure": false,
  "sock": "",
  "token": "GE56q1L6RUyKQBvr4iAvbQ",
  "url": "http://0.0.0.0:8888/user/clement_jt-mt15-2021-hchi4kd2/"
}